{
	"create_route_map":	false,
	"create_new_project":	false,
	"created_menu":	false,
	"created_views":	true,
	"theme":	"material",
	"output_folder":	"c:\\magicxpa46\\Projects\\petshopwc\\output",
	"backup_current":	false,
	"source_images_folder":	"c:\\magicxpa46\\Projects\\petshopwc\\images",
	"copy_images":	false,
	"exposed_functionality":	true,
	"allow_testing":	false,
	"project_name":	"petshopwc",
	"web_modules":	[
		{
			"module_name":	"",
			"load_on_demand":	false,
			"form_files":	[
				"WebClientMyEmployees/WebClientMyEmployees",
				"WebClientExampleDB/WebClientExampleDB"
			]
		}
	],
	"controls_accessor_only":	false
}